…
<img src="HorseRacing_files/figure-html/age dist by sex-1.png" style="display: block; margin: auto;" />
As shown above, horses in the race are typically between 2-12 years old. The majority of horses are within the age of 3-5. Also, most of the horses are Gelding (castrated male horses) as expected.   

The age distribution by sex shows that the age of the horses are actually correlated with the sex of horses. The age distribution for Gelding is close to normal, peaked at 5. For Colt (young, uncastrated male horse) and Filly (young female horse), only horses at the age of 2 or 3 are in the race. The age peaks at 3. For Mare (adult female horse), however, they are older than 4 and most of them are at 4. So it makes more sense to consider the impact of horse age and sex as a combined feature.   

For example, the winnings of the horses at different ages are ploted by different sexes:  

<img src="HorseRacing_files/figure-html/prize vs age by sex-1.png" style="display: block; margin: auto;" />

We can also concatenate age and sex to make a new categorical variable, and calculate/plot the mean, standard deviation, and median of the prize money for each group.  

```
## Source: local data frame [31 x 6]
## Groups: name [6]
## 
##       name    age mean_prize  sd_prize median_prize   sex_age
##     <fctr> <fctr>      <dbl>     <dbl>        <dbl>    <fctr>
## 1     Colt      2   8557.342  17982.50          575    Colt_2
## 2     Colt      3  20771.533  59974.48         3910    Colt_3
## 3    Filly      2   7486.142  23637.53          635   Filly_2
## 4    Filly      3  18466.142  39820.79         3930   Filly_3
## 5  Gelding      2   6644.522  16908.09          600 Gelding_2
## 6  Gelding      3  17130.430  31028.70         4120 Gelding_3
## 7  Gelding      4  32741.899  62699.01        16200 Gelding_4
## 8  Gelding      5  53160.798  66786.27        33780 Gelding_5
## 9  Gelding      6  92619.145 117492.08        60576 Gelding_6
## 10 Gelding      7 122322.090 146531.62        79005 Gelding_7
## # ... with 21 more rows
```
…
